…
    fit = map(data, ~glm(homicide_statu ~ victim_age + victim_sex + victim_race, data =.x, family = binomial())),
   results = map(fit, broom::tidy)
   ) %>%
  unnest(results) %>%
  mutate(
    odds_ratio_all = exp(estimate),
    CI_lower_all = exp(estimate - 1.96 * std.error),
    CI_upper_all = exp(estimate + 1.96 * std.error)
  ) %>% 
  filter(term == "victim_sexMale") %>% 
  select(term, city_state, odds_ratio_all, CI_lower_all, CI_upper_all) 
fit_all_data
```

    ## # A tibble: 47 × 5
    ##    term           city_state      odds_ratio_all CI_lower_all CI_upper_all
    ##    <chr>          <chr>                    <dbl>        <dbl>        <dbl>
    ##  1 victim_sexMale Albuquerque, NM          1.73         0.814        3.70 
    ##  2 victim_sexMale Atlanta, GA              1.00         0.684        1.46 
    ##  3 victim_sexMale Baltimore, MD            0.426        0.325        0.558
    ##  4 victim_sexMale Baton Rouge, LA          0.381        0.209        0.695
    ##  5 victim_sexMale Birmingham, AL           0.873        0.576        1.32 
    ##  6 victim_sexMale Boston, MA               0.672        0.355        1.27 
    ##  7 victim_sexMale Buffalo, NY              0.522        0.291        0.939
    ##  8 victim_sexMale Charlotte, NC            0.884        0.557        1.40 
    ##  9 victim_sexMale Chicago, IL              0.410        0.336        0.501
    ## 10 victim_sexMale Cincinnati, OH           0.400        0.236        0.677
    ## # … with 37 more rows
…
